{
    "jet_collection": "tempJets",
    "jet_calibration_collection": "AntiKt4EMPFlow",
    "jet_calib_file": "JES_MC16Recommendation_Consolidated_PFlow_Apr2019_Rel21.config",
    "cal_seq": "JetArea_Residual_EtaJES_GSC_Smear",
    "cal_area": "00-04-82",
    "do_calibration": "false",
    "vr_cuts": "false",
    "jvt_cut": 0.5,
    "pt_cut": 20000,
    "vertex_collection": "HLT_IDVertex_FS",
    "n_jets_per_event": 8,
    "dl2_configs": [],
    "variables": {
        "btag": {
            "file": "fragments/trigger-variables.json",
            "floats": [
                "deltaRToOfflineJet",
                "deltaPtToOfflineJet",
                "OfflineMatchedDL1r_pb",
                "OfflineMatchedDL1r_pc",
                "OfflineMatchedDL1r_pu"
            ],
            "jet_int_variables": [
                "OfflineMatchedHadronConeExclTruthLabelID",
                "OfflineMatchedHadronConeExclExtendedTruthLabelID"
            ]
        }
    },
    "tracks": [],
    "decorate": {
        "jet_aug": "false",
        "btag_jes": "true",
        "soft_muon": "false",
        "track_truth_info": "false",
        "track_sv_info": "false"
    }
}
