mc16_13TeV:mc16_13TeV.301322.Pythia8EvtGen_A14NNPDF23LO_zprime400_tt.deriv.DAOD_FTAG5.e4061_s3126_r10201_p4258
mc16_13TeV:mc16_13TeV.301323.Pythia8EvtGen_A14NNPDF23LO_zprime500_tt.deriv.DAOD_FTAG5.e4061_s3126_r10201_p4258
mc16_13TeV:mc16_13TeV.301324.Pythia8EvtGen_A14NNPDF23LO_zprime750_tt.deriv.DAOD_FTAG5.e4061_s3126_r10201_p4258
mc16_13TeV:mc16_13TeV.301325.Pythia8EvtGen_A14NNPDF23LO_zprime1000_tt.deriv.DAOD_FTAG5.e4061_s3126_r10201_p4258
mc16_13TeV:mc16_13TeV.301326.Pythia8EvtGen_A14NNPDF23LO_zprime1250_tt.deriv.DAOD_FTAG5.e4061_s3126_r10201_p4258
mc16_13TeV:mc16_13TeV.301327.Pythia8EvtGen_A14NNPDF23LO_zprime1500_tt.deriv.DAOD_FTAG5.e4061_s3126_r10201_p4258
mc16_13TeV:mc16_13TeV.301328.Pythia8EvtGen_A14NNPDF23LO_zprime1750_tt.deriv.DAOD_FTAG5.e4061_s3126_r10201_p4258
mc16_13TeV:mc16_13TeV.301329.Pythia8EvtGen_A14NNPDF23LO_zprime2000_tt.deriv.DAOD_FTAG5.e4061_s3126_r10201_p4258
mc16_13TeV:mc16_13TeV.301330.Pythia8EvtGen_A14NNPDF23LO_zprime2250_tt.deriv.DAOD_FTAG5.e4061_s3126_r10201_p4258
mc16_13TeV:mc16_13TeV.301331.Pythia8EvtGen_A14NNPDF23LO_zprime2500_tt.deriv.DAOD_FTAG5.e4061_s3126_r10201_p4258
mc16_13TeV:mc16_13TeV.301332.Pythia8EvtGen_A14NNPDF23LO_zprime2750_tt.deriv.DAOD_FTAG5.e4061_s3126_r10201_p4258
mc16_13TeV:mc16_13TeV.301333.Pythia8EvtGen_A14NNPDF23LO_zprime3000_tt.deriv.DAOD_FTAG5.e3723_s3126_r10201_p4258
mc16_13TeV:mc16_13TeV.301334.Pythia8EvtGen_A14NNPDF23LO_zprime4000_tt.deriv.DAOD_FTAG5.e3723_s3126_r10201_p4258
mc16_13TeV:mc16_13TeV.301335.Pythia8EvtGen_A14NNPDF23LO_zprime5000_tt.deriv.DAOD_FTAG5.e3723_s3126_r10201_p4258
mc16_13TeV:mc16_13TeV.301488.MadGraphPythia8EvtGen_A14NNPDF23LO_RS_G_hh_bbbb_c10_M300.deriv.DAOD_FTAG5.e3820_s3126_r10201_p4258
mc16_13TeV:mc16_13TeV.301489.MadGraphPythia8EvtGen_A14NNPDF23LO_RS_G_hh_bbbb_c10_M400.deriv.DAOD_FTAG5.e3820_s3126_r10201_p4258
mc16_13TeV:mc16_13TeV.301490.MadGraphPythia8EvtGen_A14NNPDF23LO_RS_G_hh_bbbb_c10_M500.deriv.DAOD_FTAG5.e3820_s3126_r10201_p4258
mc16_13TeV:mc16_13TeV.301491.MadGraphPythia8EvtGen_A14NNPDF23LO_RS_G_hh_bbbb_c10_M600.deriv.DAOD_FTAG5.e3820_s3126_r10201_p4258
mc16_13TeV:mc16_13TeV.301492.MadGraphPythia8EvtGen_A14NNPDF23LO_RS_G_hh_bbbb_c10_M700.deriv.DAOD_FTAG5.e3820_s3126_r10201_p4258
mc16_13TeV:mc16_13TeV.301493.MadGraphPythia8EvtGen_A14NNPDF23LO_RS_G_hh_bbbb_c10_M800.deriv.DAOD_FTAG5.e3820_s3126_r10201_p4258
mc16_13TeV:mc16_13TeV.301494.MadGraphPythia8EvtGen_A14NNPDF23LO_RS_G_hh_bbbb_c10_M900.deriv.DAOD_FTAG5.e3820_s3126_r10201_p4258
mc16_13TeV:mc16_13TeV.301495.MadGraphPythia8EvtGen_A14NNPDF23LO_RS_G_hh_bbbb_c10_M1000.deriv.DAOD_FTAG5.e3820_s3126_r10201_p4258
mc16_13TeV:mc16_13TeV.301496.MadGraphPythia8EvtGen_A14NNPDF23LO_RS_G_hh_bbbb_c10_M1100.deriv.DAOD_FTAG5.e3820_s3126_r10201_p4258
mc16_13TeV:mc16_13TeV.301497.MadGraphPythia8EvtGen_A14NNPDF23LO_RS_G_hh_bbbb_c10_M1200.deriv.DAOD_FTAG5.e3820_s3126_r10201_p4258
mc16_13TeV:mc16_13TeV.301498.MadGraphPythia8EvtGen_A14NNPDF23LO_RS_G_hh_bbbb_c10_M1300.deriv.DAOD_FTAG5.e3820_s3126_r10201_p4258
mc16_13TeV:mc16_13TeV.301499.MadGraphPythia8EvtGen_A14NNPDF23LO_RS_G_hh_bbbb_c10_M1400.deriv.DAOD_FTAG5.e3820_s3126_r10201_p4258
mc16_13TeV:mc16_13TeV.301500.MadGraphPythia8EvtGen_A14NNPDF23LO_RS_G_hh_bbbb_c10_M1500.deriv.DAOD_FTAG5.e3820_s3126_r10201_p4258
mc16_13TeV:mc16_13TeV.301501.MadGraphPythia8EvtGen_A14NNPDF23LO_RS_G_hh_bbbb_c10_M1600.deriv.DAOD_FTAG5.e3820_s3126_r10201_p4258
mc16_13TeV:mc16_13TeV.301502.MadGraphPythia8EvtGen_A14NNPDF23LO_RS_G_hh_bbbb_c10_M1800.deriv.DAOD_FTAG5.e3820_s3126_r10201_p4258
mc16_13TeV:mc16_13TeV.301503.MadGraphPythia8EvtGen_A14NNPDF23LO_RS_G_hh_bbbb_c10_M2000.deriv.DAOD_FTAG5.e3820_s3126_r10201_p4258
mc16_13TeV:mc16_13TeV.301504.MadGraphPythia8EvtGen_A14NNPDF23LO_RS_G_hh_bbbb_c10_M2250.deriv.DAOD_FTAG5.e3820_s3126_r10201_p4258
mc16_13TeV:mc16_13TeV.301505.MadGraphPythia8EvtGen_A14NNPDF23LO_RS_G_hh_bbbb_c10_M2500.deriv.DAOD_FTAG5.e3820_s3126_r10201_p4258
mc16_13TeV:mc16_13TeV.301506.MadGraphPythia8EvtGen_A14NNPDF23LO_RS_G_hh_bbbb_c10_M2750.deriv.DAOD_FTAG5.e3820_s3126_r10201_p4258
mc16_13TeV:mc16_13TeV.301507.MadGraphPythia8EvtGen_A14NNPDF23LO_RS_G_hh_bbbb_c10_M3000.deriv.DAOD_FTAG5.e3820_s3126_r10201_p4258
mc16_13TeV:mc16_13TeV.305779.MadGraphPythia8EvtGen_A14NNPDF23LO_RS_G_hh_bbbb_c10_M5000.deriv.DAOD_FTAG5.e5184_s3126_r10201_p4258
mc16_13TeV:mc16_13TeV.309450.PowhegPy8EG_NNLOPS_nnlo_30_ggH125_bb_kt200.deriv.DAOD_FTAG5.e6281_s3126_r10201_p4258
mc16_13TeV:mc16_13TeV.361020.Pythia8EvtGen_A14NNPDF23LO_jetjet_JZ0W.deriv.DAOD_FTAG5.e3569_s3126_r10201_p4258
mc16_13TeV:mc16_13TeV.361021.Pythia8EvtGen_A14NNPDF23LO_jetjet_JZ1W.deriv.DAOD_FTAG5.e3569_s3126_r10201_p4258
mc16_13TeV:mc16_13TeV.361022.Pythia8EvtGen_A14NNPDF23LO_jetjet_JZ2W.deriv.DAOD_FTAG5.e3668_s3126_r10201_p4258
mc16_13TeV:mc16_13TeV.361023.Pythia8EvtGen_A14NNPDF23LO_jetjet_JZ3W.deriv.DAOD_FTAG5.e3668_s3126_r10201_p4258
mc16_13TeV:mc16_13TeV.361024.Pythia8EvtGen_A14NNPDF23LO_jetjet_JZ4W.deriv.DAOD_FTAG5.e3668_s3126_r10201_p4258
mc16_13TeV:mc16_13TeV.361025.Pythia8EvtGen_A14NNPDF23LO_jetjet_JZ5W.deriv.DAOD_FTAG5.e3668_s3126_r10201_p4258
mc16_13TeV:mc16_13TeV.361026.Pythia8EvtGen_A14NNPDF23LO_jetjet_JZ6W.deriv.DAOD_FTAG5.e3569_s3126_r10201_p4258
mc16_13TeV:mc16_13TeV.361027.Pythia8EvtGen_A14NNPDF23LO_jetjet_JZ7W.deriv.DAOD_FTAG5.e3668_s3126_r10201_p4258
mc16_13TeV:mc16_13TeV.361028.Pythia8EvtGen_A14NNPDF23LO_jetjet_JZ8W.deriv.DAOD_FTAG5.e3569_s3126_r10201_p4258
mc16_13TeV:mc16_13TeV.361029.Pythia8EvtGen_A14NNPDF23LO_jetjet_JZ9W.deriv.DAOD_FTAG5.e3569_s3126_r10201_p4258
mc16_13TeV:mc16_13TeV.361030.Pythia8EvtGen_A14NNPDF23LO_jetjet_JZ10W.deriv.DAOD_FTAG5.e3569_s3126_r10201_p4258
mc16_13TeV:mc16_13TeV.361031.Pythia8EvtGen_A14NNPDF23LO_jetjet_JZ11W.deriv.DAOD_FTAG5.e3569_s3126_r10201_p4258
mc16_13TeV:mc16_13TeV.361032.Pythia8EvtGen_A14NNPDF23LO_jetjet_JZ12W.deriv.DAOD_FTAG5.e3668_s3126_r10201_p4258
mc16_13TeV:mc16_13TeV.426345.Pythia8EvtGen_A14NNPDF23LO_Zprime_tt_flatpT.deriv.DAOD_FTAG5.e6880_s3126_r10201_p4258
mc16_13TeV:mc16_13TeV.426347.Pythia8EvtGen_A14NNPDF23LO_WprimeWZ_flatpT.deriv.DAOD_FTAG5.e6880_s3126_r10201_p4258
mc16_13TeV:mc16_13TeV.426351.Pythia8EvtGen_A14NNPDF23LO_Ghh_03_3000.deriv.DAOD_FTAG5.e7358_s3126_r10201_p4258
